{
    "dimension": 2,
    "driver": {
        "cfl": 1.0,
        "first_frame": 0,
        "fps": 500,
        "last_frame": 1000,
        "min_step_frame_fraction": 0,
        "output_base_dir": "mpls_four_bubbles",
        "queue_size": 10
    },
    "scene": {
        "auto_generate_bubble": 0,
        "compare_with_levelset": 0,
        "gravity_acc": [
            -0.0,
            -9.8,
            -0.0
        ],
        "scale": 128,
        "side_len": 1.0,
        "sigma": 0.07275,
        "test": "four_bubbles",
        "use_gravity": 0,
        "use_normal_dynamics": 1,
        "use_particle_correction": 1,
        "use_tangent_dynamics": 0,
        "vel_thres": 100000000.0,
        "write_binary_particles": 0
    },
    "simulator": "fluidmpls"
}